…
data(fev_data, package = "mmrm")
data <- fev_data |>
  mutate("FEV1_CHG" = FEV1 - FEV1_BL) |>
  brm_data(
    outcome = "FEV1_CHG",
    role = "change",
    group = "ARMCD",
    time = "AVISIT",
    patient = "USUBJID",
    baseline = "FEV1_BL",
    reference_group = "PBO",
    covariates = c("WEIGHT", "SEX")
  )
data
#> # A tibble: 800 × 7
#>    FEV1_CHG FEV1_BL ARMCD AVISIT USUBJID WEIGHT SEX   
#>       <dbl>   <dbl> <chr> <chr>  <fct>    <dbl> <fct> 
#>  1    NA       45.0 PBO   VIS1   PT2      0.465 Male  
#>  2   -13.6     45.0 PBO   VIS2   PT2      0.233 Male  
#>  3    -8.15    45.0 PBO   VIS3   PT2      0.360 Male  
#>  4     3.78    45.0 PBO   VIS4   PT2      0.507 Male  
#>  5    NA       43.5 PBO   VIS1   PT3      0.682 Female
#>  6    -7.51    43.5 PBO   VIS2   PT3      0.892 Female
#>  7    NA       43.5 PBO   VIS3   PT3      0.128 Female
#>  8    -6.34    43.5 PBO   VIS4   PT3      0.222 Female
#>  9   -11.3     43.6 PBO   VIS1   PT5      0.411 Male  
#> 10    NA       43.6 PBO   VIS2   PT5      0.422 Male  
#> # ℹ 790 more rows
```

The functions listed at <https://openpharma.github.io/brms.mmrm/reference/index.html#informative-prior-archetypes> can create different kinds of informative prior archetypes from a dataset like the one above. For example, suppose we want to place informative priors on the successive differences between adjacent time points. This approach is appropriate and desirable in many situations because the structure naturally captures the prior correlations among adjacent visits of a clinical trial. To do this, we create an instance of the "successive cells" archetype.


```r
archetype <- brm_archetype_successive_cells(data, baseline = FALSE)
```

The instance of the archetype is an ordinary tibble, but it adds new columns.


```r
archetype
#> # A tibble: 800 × 21
#>    x_PBO_VIS1 x_PBO_VIS2 x_PBO_VIS3 x_PBO_VIS4 x_TRT_VIS1 x_TRT_VIS2 x_TRT_VIS3
#>  *      <dbl>      <dbl>      <dbl>      <dbl>      <dbl>      <dbl>      <dbl>
#>  1          1          0          0          0          0          0          0
#>  2          1          1          0          0          0          0          0
#>  3          1          1          1          0          0          0          0
#>  4          1          1          1          1          0          0          0
#>  5          1          0          0          0          0          0          0
#>  6          1          1          0          0          0          0          0
#>  7          1          1          1          0          0          0          0
#>  8          1          1          1          1          0          0          0
#>  9          1          0          0          0          0          0          0
#> 10          1          1          0          0          0          0          0
#> # ℹ 790 more rows
#> # ℹ 14 more variables: x_TRT_VIS4 <dbl>, nuisance_WEIGHT <dbl>,
#> #   nuisance_SEX_Male <dbl>, nuisance_FEV1_BL.AVISITVIS1 <dbl>,
#> #   nuisance_FEV1_BL.AVISITVIS2 <dbl>, nuisance_FEV1_BL.AVISITVIS3 <dbl>,
#> #   nuisance_FEV1_BL.AVISITVIS4 <dbl>, USUBJID <fct>, AVISIT <chr>,
#> #   FEV1_CHG <dbl>, FEV1_BL <dbl>, ARMCD <chr>, WEIGHT <dbl>, SEX <fct>
```
…
