…
library(mmrm)
data(fev_data, package = "mmrm")
data_current <- fev_data |>
  mutate(FEV1_CHG = FEV1 - FEV1_BL) |>
  brm_data(
    outcome = "FEV1_CHG",
    group = "ARMCD",
    time = "AVISIT",
    patient = "USUBJID",
    reference_group = "PBO"
  ) |>
  brm_data_chronologize(order = "VISITN") |>
  brm_archetype_effects(intercept = FALSE)
data_current
#> # A tibble: 800 × 19
#>    x_PBO_VIS1 x_PBO_VIS2 x_PBO_VIS3 x_PBO_VIS4 x_TRT_VIS1 x_TRT_VIS2 x_TRT_VIS3 x_TRT_VIS4 USUBJID AVISIT
#>  *      <int>      <int>      <int>      <int>      <int>      <int>      <int>      <int> <fct>   <ord> 
#>  1          1          0          0          0          0          0          0          0 PT2     VIS1  
#>  2          0          1          0          0          0          0          0          0 PT2     VIS2  
#>  3          0          0          1          0          0          0          0          0 PT2     VIS3  
#>  4          0          0          0          1          0          0          0          0 PT2     VIS4  
#>  5          1          0          0          0          0          0          0          0 PT3     VIS1  
#>  6          0          1          0          0          0          0          0          0 PT3     VIS2  
#>  7          0          0          1          0          0          0          0          0 PT3     VIS3  
#>  8          0          0          0          1          0          0          0          0 PT3     VIS4  
#>  9          1          0          0          0          0          0          0          0 PT5     VIS1  
#> 10          0          1          0          0          0          0          0          0 PT5     VIS2  
#> # ℹ 790 more rows
#> # ℹ 9 more variables: ARMCD <fct>, RACE <fct>, SEX <fct>, FEV1_BL <dbl>, FEV1 <dbl>, WEIGHT <dbl>,
#> #   VISITN <int>, VISITN2 <dbl>, FEV1_CHG <dbl>
```
…
