…
The `data` element has a classed `tibble` you can directly supply to `brm_formula()` and `brm_model()`.


``` r
sim$data
#> # A tibble: 1,200 × 4
#>    patient     time   response group  
#>    <chr>       <chr>     <dbl> <chr>  
#>  1 patient_001 time_1    1.11  group_1
#>  2 patient_001 time_2    2.15  group_1
#>  3 patient_001 time_3    2.54  group_1
#>  4 patient_001 time_4   -1.73  group_1
#>  5 patient_002 time_1    1.11  group_1
#>  6 patient_002 time_2    2.64  group_1
#>  7 patient_002 time_3    1.69  group_1
#>  8 patient_002 time_4    0.783 group_1
#>  9 patient_003 time_1    0.118 group_1
#> 10 patient_003 time_2    2.48  group_1
#> # ℹ 1,190 more rows
```
…
# Change from baseline

`brm_data_change()` can convert the outcome variable from raw response to change from baseline. This applies to real datasets passed through [brm_data()] as well as simulated ones from e.g. [brm_simulate_simple()]. The dataset above uses raw response with a baseline time point of `"time_1"`


``` r
sim$data
#> # A tibble: 1,200 × 4
#>    patient     time   response group  
#>    <chr>       <chr>     <dbl> <chr>  
#>  1 patient_001 time_1    1.11  group_1
#>  2 patient_001 time_2    2.15  group_1
#>  3 patient_001 time_3    2.54  group_1
#>  4 patient_001 time_4   -1.73  group_1
#>  5 patient_002 time_1    1.11  group_1
#>  6 patient_002 time_2    2.64  group_1
#>  7 patient_002 time_3    1.69  group_1
#>  8 patient_002 time_4    0.783 group_1
#>  9 patient_003 time_1    0.118 group_1
#> 10 patient_003 time_2    2.48  group_1
#> # ℹ 1,190 more rows
```

`brm_data_change()` subtracts baseline, replaces the raw response column with a new change from baseline column, adds a new column for the original baseline raw response, and adjusts the internal attributes of the classed object accordingly.


``` r
brm_data_change(
  data = sim$data,
  name_change = "new_change",
  name_baseline = "new_baseline"
)
#> # A tibble: 900 × 5
#>    patient     time   group   new_change new_baseline
#>    <chr>       <chr>  <chr>        <dbl>        <dbl>
#>  1 patient_001 time_2 group_1      1.04         1.11 
#>  2 patient_001 time_3 group_1      1.43         1.11 
#>  3 patient_001 time_4 group_1     -2.84         1.11 
#>  4 patient_002 time_2 group_1      1.53         1.11 
#>  5 patient_002 time_3 group_1      0.576        1.11 
#>  6 patient_002 time_4 group_1     -0.328        1.11 
#>  7 patient_003 time_2 group_1      2.37         0.118
#>  8 patient_003 time_3 group_1      3.07         0.118
#>  9 patient_003 time_4 group_1     -1.14         0.118
#> 10 patient_004 time_2 group_1      1.57         1.29 
#> # ℹ 890 more rows
```
# Advanced

For a more nuanced simulation, build up the dataset layer by layer. Begin with `brm_simulate_outline()` to create an initial structure and a random missingness pattern. In `brm_simulate_outline()`, missing responses can come from either transitory intercurrent events or from dropouts. The `missing` column indicates which outcome values will be missing (`NA_real_`) in a later step. The `response` column is entirely missing for now and will be simulated later.


``` r
data <- brm_simulate_outline(
  n_group = 2,
  n_patient = 100,
  n_time = 4,
  rate_dropout = 0.3
)

data
#> # A tibble: 800 × 5
#>    patient     time   group   missing response
#>    <chr>       <chr>  <chr>   <lgl>      <dbl>
#>  1 patient_001 time_1 group_1 FALSE         NA
#>  2 patient_001 time_2 group_1 TRUE          NA
#>  3 patient_001 time_3 group_1 TRUE          NA
#>  4 patient_001 time_4 group_1 TRUE          NA
#>  5 patient_002 time_1 group_1 FALSE         NA
#>  6 patient_002 time_2 group_1 FALSE         NA
#>  7 patient_002 time_3 group_1 TRUE          NA
#>  8 patient_002 time_4 group_1 TRUE          NA
#>  9 patient_003 time_1 group_1 FALSE         NA
#> 10 patient_003 time_2 group_1 FALSE         NA
#> # ℹ 790 more rows
```

Optionally add random continuous covariates `brm_simulate_continuous()` and random categorical covariates using `brm_simulate_categorical()`. In each case, the covariates are non-time-varying, which means each patient gets only one unique value.


``` r
data <- data |>
  brm_simulate_continuous(names = c("biomarker1", "biomarker2")) |>
  brm_simulate_categorical(
    names = c("status1", "status2"),
    levels = c("present", "absent")
  )

data
#> # A tibble: 800 × 9
#>    patient    time  group missing response biomarker1 biomarker2 status1 status2
#>    <chr>      <chr> <chr> <lgl>      <dbl>      <dbl>      <dbl> <chr>   <chr>  
#>  1 patient_0… time… grou… FALSE         NA      0.328     -0.655 present absent 
#>  2 patient_0… time… grou… TRUE          NA      0.328     -0.655 present absent 
#>  3 patient_0… time… grou… TRUE          NA      0.328     -0.655 present absent 
#>  4 patient_0… time… grou… TRUE          NA      0.328     -0.655 present absent 
#>  5 patient_0… time… grou… FALSE         NA      1.04      -0.779 absent  absent 
#>  6 patient_0… time… grou… FALSE         NA      1.04      -0.779 absent  absent 
#>  7 patient_0… time… grou… TRUE          NA      1.04      -0.779 absent  absent 
#>  8 patient_0… time… grou… TRUE          NA      1.04      -0.779 absent  absent 
#>  9 patient_0… time… grou… FALSE         NA      0.717     -0.954 present absent 
#> 10 patient_0… time… grou… FALSE         NA      0.717     -0.954 present absent 
#> # ℹ 790 more rows
```
…
The output object `sim` has multiple draws from the prior predictive distribution. `sim$outcome` has outcome draws, and `sim$parameters` has parameter draws. `sim$model_matrix` has the model matrix, and `sim$model` has the full `brms` model fit object. You can pass `sim$model` to functions from `brms` and `bayesplot` such as `pp_check()`.


``` r
names(sim)
#> [1] "data"         "model"        "model_matrix" "outcome"      "parameters"
```

In addition, `sim$data` has a copy of the original dataset, but with the outcome variable taken from the final draw from the prior predictive distribution. In addition, the missingness pattern is automatically applied so that `sim$data$response` is `NA_real_` whenever `sim$data$missing` equals `TRUE`.


``` r
sim$data
#> # A tibble: 800 × 9
#>    patient    time  group missing response biomarker1 biomarker2 status1 status2
#>    <chr>      <chr> <chr> <lgl>      <dbl>      <dbl>      <dbl> <chr>   <chr>  
#>  1 patient_0… time… grou… FALSE      3.90       0.328     -0.655 present absent 
#>  2 patient_0… time… grou… TRUE      NA          0.328     -0.655 present absent 
#>  3 patient_0… time… grou… TRUE      NA          0.328     -0.655 present absent 
#>  4 patient_0… time… grou… TRUE      NA          0.328     -0.655 present absent 
#>  5 patient_0… time… grou… FALSE      3.46       1.04      -0.779 absent  absent 
#>  6 patient_0… time… grou… FALSE      2.66       1.04      -0.779 absent  absent 
#>  7 patient_0… time… grou… TRUE      NA          1.04      -0.779 absent  absent 
#>  8 patient_0… time… grou… TRUE      NA          1.04      -0.779 absent  absent 
#>  9 patient_0… time… grou… FALSE      5.28       0.717     -0.954 present absent 
#> 10 patient_0… time… grou… FALSE      0.120      0.717     -0.954 present absent 
#> # ℹ 790 more rows
```
…
