…
raw_data
#> # A tibble: 900 × 6
#>    response missing group   subgroup   time   patient    
#>       <dbl> <lgl>   <chr>   <chr>      <chr>  <chr>      
#>  1  1.26    FALSE   group_1 subgroup_1 time_1 patient_001
#>  2 -0.326   FALSE   group_1 subgroup_1 time_2 patient_001
#>  3  1.33    FALSE   group_1 subgroup_1 time_3 patient_001
#>  4  1.27    FALSE   group_1 subgroup_1 time_1 patient_002
#>  5  0.415   FALSE   group_1 subgroup_1 time_2 patient_002
#>  6 -1.54    FALSE   group_1 subgroup_1 time_3 patient_002
#>  7 -0.929   FALSE   group_1 subgroup_1 time_1 patient_003
#>  8 -0.295   FALSE   group_1 subgroup_1 time_2 patient_003
#>  9 -0.00577 FALSE   group_1 subgroup_1 time_3 patient_003
#> 10  2.40    FALSE   group_1 subgroup_1 time_1 patient_004
#> # ℹ 890 more rows
```
…
```r
draws_reduced <- brm_marginal_draws(
  data = data,
  formula = formula_reduced,
  model = model_reduced
)
```

For `draws_subgroup`, the marginals of the time difference (change from baseline) and treatment difference are now subgroup-specific.


```r
tibble::as_tibble(draws_subgroup$difference_group)
#> # A tibble: 4,000 × 11
#>    .chain .draw .iteration `group_2|subgroup_1|time_2` group_2|subgroup_1|time…¹
#>     <int> <int>      <int>                       <dbl>                     <dbl>
#>  1      1     1          1                     -0.472                    -0.534 
#>  2      1     2          2                     -0.0221                   -0.335 
#>  3      1     3          3                     -0.222                    -0.217 
#>  4      1     4          4                      0.199                    -0.111 
#>  5      1     5          5                      0.0411                   -0.165 
#>  6      1     6          6                     -0.215                    -0.571 
#>  7      1     7          7                      0.0821                   -0.163 
#>  8      1     8          8                     -0.167                    -0.0113
#>  9      1     9          9                      0.282                     0.0544
#> 10      1    10         10                      0.321                    -0.322 
#> # ℹ 3,990 more rows
#> # ℹ abbreviated name: ¹​`group_2|subgroup_1|time_3`
#> # ℹ 6 more variables: `group_2|subgroup_2|time_2` <dbl>,
#> #   `group_2|subgroup_2|time_3` <dbl>, `group_3|subgroup_1|time_2` <dbl>,
#> #   `group_3|subgroup_1|time_3` <dbl>, `group_3|subgroup_2|time_2` <dbl>,
#> #   `group_3|subgroup_2|time_3` <dbl>
```

In addition, there is a new `difference_subgroup` table. The posterior samples in `difference_subgroup` measure the differences between each subgroup level and the reference subgroup level with respect to the treatment effects in `difference_group`.


```r
tibble::as_tibble(draws_subgroup$difference_subgroup)
#> # A tibble: 4,000 × 7
#>    .chain .draw .iteration `group_2|subgroup_2|time_2` group_2|subgroup_2|time…¹
#>     <int> <int>      <int>                       <dbl>                     <dbl>
#>  1      1     1          1                    5.55e-17                         0
#>  2      1     2          2                    4.16e-17                         0
#>  3      1     3          3                    0                                0
#>  4      1     4          4                   -2.78e-17                         0
#>  5      1     5          5                    2.78e-17                         0
#>  6      1     6          6                    0                                0
#>  7      1     7          7                    5.55e-17                         0
#>  8      1     8          8                    2.78e-17                         0
#>  9      1     9          9                    0                                0
#> 10      1    10         10                    0                                0
#> # ℹ 3,990 more rows
#> # ℹ abbreviated name: ¹​`group_2|subgroup_2|time_3`
#> # ℹ 2 more variables: `group_3|subgroup_2|time_2` <dbl>,
#> #   `group_3|subgroup_2|time_3` <dbl>
```
…
```r
summaries_subgroup <- brm_marginal_summaries(
  draws_subgroup,
  level = 0.95
)

summaries_reduced <- brm_marginal_summaries(
  draws_reduced,
  level = 0.95
)

summaries_subgroup
#> # A tibble: 250 × 7
#>    marginal         statistic group   subgroup   time     value    mcse
#>    <chr>            <chr>     <chr>   <chr>      <chr>    <dbl>   <dbl>
#>  1 difference_group lower     group_2 subgroup_1 time_2 -0.300  0.00952
#>  2 difference_group lower     group_2 subgroup_1 time_3 -0.540  0.0137 
#>  3 difference_group lower     group_2 subgroup_2 time_2 -0.300  0.00952
#>  4 difference_group lower     group_2 subgroup_2 time_3 -0.540  0.0137 
#>  5 difference_group lower     group_3 subgroup_1 time_2 -0.130  0.00873
#>  6 difference_group lower     group_3 subgroup_1 time_3 -0.286  0.00976
#>  7 difference_group lower     group_3 subgroup_2 time_2 -0.130  0.00873
#>  8 difference_group lower     group_3 subgroup_2 time_3 -0.286  0.00976
#>  9 difference_group mean      group_2 subgroup_1 time_2  0.0913 0.00439
#> 10 difference_group mean      group_2 subgroup_1 time_3 -0.167  0.00403
#> # ℹ 240 more rows
```
…
`brm_marignal_data()` can produce either subgroup-specific or non-subgroup-specific summary statistics.


```r
summaries_data_subgroup <- brm_marginal_data(
  data = data,
  level = 0.95,
  use_subgroup = TRUE
)

summaries_data_subgroup
#> # A tibble: 126 × 5
#>    statistic group   subgroup   time   value
#>    <chr>     <chr>   <chr>      <chr>  <dbl>
#>  1 lower     group_1 subgroup_1 time_1 0.170
#>  2 lower     group_1 subgroup_1 time_2 0.244
#>  3 lower     group_1 subgroup_1 time_3 0.169
#>  4 lower     group_1 subgroup_2 time_1 0.484
#>  5 lower     group_1 subgroup_2 time_2 0.364
#>  6 lower     group_1 subgroup_2 time_3 0.266
#>  7 lower     group_2 subgroup_1 time_1 0.421
#>  8 lower     group_2 subgroup_1 time_2 0.221
#>  9 lower     group_2 subgroup_1 time_3 0.208
#> 10 lower     group_2 subgroup_2 time_1 0.220
#> # ℹ 116 more rows
```


```r
summaries_data_reduced <- brm_marginal_data(
  data = data,
  level = 0.95,
  use_subgroup = FALSE
)

summaries_data_reduced
#> # A tibble: 63 × 4
#>    statistic group   time     value
#>    <chr>     <chr>   <chr>    <dbl>
#>  1 lower     group_1 time_1  0.251 
#>  2 lower     group_1 time_2  0.219 
#>  3 lower     group_1 time_3  0.143 
#>  4 lower     group_2 time_1  0.237 
#>  5 lower     group_2 time_2  0.252 
#>  6 lower     group_2 time_3 -0.0331
#>  7 lower     group_3 time_1  0.104 
#>  8 lower     group_3 time_2  0.332 
#>  9 lower     group_3 time_3  0.110 
#> 10 mean      group_1 time_1  0.0632
#> # ℹ 53 more rows
```
…
