…
```r
library(brms.mmrm)
library(dplyr)
library(magrittr)
set.seed(0L)
raw_data <- brm_simulate_simple(
  n_group = 3,
  n_patient = 100,
  n_time = 4
) %>%
  extract2("data") %>%
  brm_simulate_continuous(c("biomarker1", "biomarker2", "biomarker3"))

raw_data
#> # A tibble: 1,200 × 7
#>    response group   time   patient     biomarker1 biomarker2 biomarker3
#>       <dbl> <chr>   <chr>  <chr>            <dbl>      <dbl>      <dbl>
#>  1    1.11  group_1 time_1 patient_1        1.31      -0.361      1.52 
#>  2    2.15  group_1 time_2 patient_1        1.31      -0.361      1.52 
#>  3    2.54  group_1 time_3 patient_1        1.31      -0.361      1.52 
#>  4   -1.73  group_1 time_4 patient_1        1.31      -0.361      1.52 
#>  5   -0.180 group_1 time_1 patient_10       0.107     -2.44      -0.139
#>  6    0.626 group_1 time_2 patient_10       0.107     -2.44      -0.139
#>  7   -0.221 group_1 time_3 patient_10       0.107     -2.44      -0.139
#>  8   -1.53  group_1 time_4 patient_10       0.107     -2.44      -0.139
#>  9    0.393 group_1 time_1 patient_100      1.44      -0.419     -1.54 
#> 10    0.442 group_1 time_2 patient_100      1.44      -0.419     -1.54 
#> # ℹ 1,190 more rows
```
…
```r
data <- brm_data(
  data = raw_data,
  outcome = "response",
  role = "response",
  group = "group",
  patient = "patient",
  time = "time",
  covariates = c("biomarker1", "biomarker2"),
  level_control = "group_1",
  level_baseline = "time_1"
)

data
#> # A tibble: 1,200 × 6
#>    response group   time   patient     biomarker1 biomarker2
#>       <dbl> <chr>   <chr>  <chr>            <dbl>      <dbl>
#>  1    1.11  group_1 time_1 patient_1        1.31      -0.361
#>  2    2.15  group_1 time_2 patient_1        1.31      -0.361
#>  3    2.54  group_1 time_3 patient_1        1.31      -0.361
#>  4   -1.73  group_1 time_4 patient_1        1.31      -0.361
#>  5   -0.180 group_1 time_1 patient_10       0.107     -2.44 
#>  6    0.626 group_1 time_2 patient_10       0.107     -2.44 
#>  7   -0.221 group_1 time_3 patient_10       0.107     -2.44 
#>  8   -1.53  group_1 time_4 patient_10       0.107     -2.44 
#>  9    0.393 group_1 time_1 patient_100      1.44      -0.419
#> 10    0.442 group_1 time_2 patient_100      1.44      -0.419
#> # ℹ 1,190 more rows
…
The `brm_marginal_summaries()` function produces posterior summaries of these marginals, and it includes the Monte Carlo standard error (MCSE) of each estimate.


```r
summaries <- brm_marginal_summaries(draws, level = 0.95)

summaries
#> # A tibble: 165 × 6
#>    marginal statistic group   time      value    mcse
#>    <chr>    <chr>     <chr>   <chr>     <dbl>   <dbl>
#>  1 change   lower     group_1 time_2  1.12    0.00536
#>  2 change   lower     group_1 time_3  0.161   0.0111 
#>  3 change   lower     group_1 time_4 -1.77    0.00751
#>  4 change   lower     group_2 time_2  1.15    0.00568
#>  5 change   lower     group_2 time_3 -0.00317 0.00831
#>  6 change   lower     group_2 time_4 -1.87    0.0121 
#>  7 change   lower     group_3 time_2  1.14    0.00495
#>  8 change   lower     group_3 time_3 -0.0267  0.00954
#>  9 change   lower     group_3 time_4 -2.05    0.00716
#> 10 change   mean      group_1 time_2  1.31    0.00226
#> # ℹ 155 more rows
```
…
Finally, the `brm_marignals_data()` computes marginal means and confidence intervals on the response variable in the data, along with other summary statistics.


```r
summaries_data <- brm_marginal_data(data = data, level = 0.95)

summaries_data
#> # A tibble: 84 × 4
#>    statistic group   time      value
#>    <chr>     <chr>   <chr>     <dbl>
#>  1 lower     group_1 time_1 -0.00263
#>  2 lower     group_1 time_2  1.32   
#>  3 lower     group_1 time_3  0.535  
#>  4 lower     group_1 time_4 -1.39   
#>  5 lower     group_2 time_1  1.33   
#>  6 lower     group_2 time_2  2.72   
#>  7 lower     group_2 time_3  1.72   
#>  8 lower     group_2 time_4 -0.0926 
#>  9 lower     group_3 time_1  1.52   
#> 10 lower     group_3 time_2  2.90   
#> # ℹ 74 more rows
```
…
