…
- `time`: integer index of the discrete time point.

## See also

Other simulation:
[`brm_simulate_categorical()`](brm_simulate_categorical.md),
[`brm_simulate_continuous()`](brm_simulate_continuous.md),
[`brm_simulate_prior()`](brm_simulate_prior.md),
[`brm_simulate_simple()`](brm_simulate_simple.md)

## Examples

``` r
brm_simulate_outline()
#> # A tibble: 800 × 5
#>    patient     time   group   missing response
#>    <chr>       <chr>  <chr>   <lgl>      <dbl>
#>  1 patient_001 time_1 group_1 FALSE         NA
#>  2 patient_001 time_2 group_1 FALSE         NA
#>  3 patient_001 time_3 group_1 FALSE         NA
#>  4 patient_001 time_4 group_1 FALSE         NA
#>  5 patient_002 time_1 group_1 FALSE         NA
#>  6 patient_002 time_2 group_1 FALSE         NA
#>  7 patient_002 time_3 group_1 FALSE         NA
#>  8 patient_002 time_4 group_1 FALSE         NA
#>  9 patient_003 time_1 group_1 FALSE         NA
#> 10 patient_003 time_2 group_1 FALSE         NA
#> # ℹ 790 more rows
```
