Create and preprocess an MMRM dataset. — brm_data • brms.mmrm
…
    See also

    Other data: 
brm_data_change()

    Examples

set.seed(0)
data <- brm_simulate_simple()$data
colnames(data) <- paste0("col_", colnames(data))
data
#> # A tibble: 800 × 4
#>    col_response col_group col_time col_patient
#>           <dbl> <chr>     <chr>    <chr>      
#>  1        1.47  group_1   time_1   patient_001
#>  2        3.10  group_1   time_2   patient_001
#>  3        2.22  group_1   time_3   patient_001
#>  4        0.215 group_1   time_4   patient_001
#>  5        1.03  group_1   time_1   patient_002
#>  6        2.28  group_1   time_2   patient_002
#>  7        2.36  group_1   time_3   patient_002
#>  8        2.33  group_1   time_4   patient_002
#>  9        0.128 group_1   time_1   patient_003
#> 10        1.89  group_1   time_2   patient_003
#> # ℹ 790 more rows
brm_data(
  data = data,
  outcome = "col_response",
  role = "response",
  group = "col_group",
  time = "col_time",
  patient = "col_patient",
  reference_group = "group_1",
  reference_time = "time_1"
)
#> # A tibble: 800 × 4
#>    col_response col_group col_time col_patient
#>           <dbl> <chr>     <chr>    <chr>      
#>  1        1.47  group_1   time_1   patient_001
#>  2        3.10  group_1   time_2   patient_001
#>  3        2.22  group_1   time_3   patient_001
#>  4        0.215 group_1   time_4   patient_001
#>  5        1.03  group_1   time_1   patient_002
#>  6        2.28  group_1   time_2   patient_002
#>  7        2.36  group_1   time_3   patient_002
#>  8        2.33  group_1   time_4   patient_002
#>  9        0.128 group_1   time_1   patient_003
#> 10        1.89  group_1   time_2   patient_003
#> # ℹ 790 more rows
…
