Start a simulated dataset — brm_simulate_outline • brms.mmrm
…
time: integer index of the discrete time point.

    See also

    Other simulation: 
brm_simulate_categorical(),
brm_simulate_continuous(),
brm_simulate_prior(),
brm_simulate_simple()

    Examples

brm_simulate_outline()
#> # A tibble: 800 × 5
#>    response missing group   time   patient    
#>       <dbl> <lgl>   <chr>   <chr>  <chr>      
#>  1       NA FALSE   group_1 time_1 patient_001
#>  2       NA FALSE   group_1 time_2 patient_001
#>  3       NA FALSE   group_1 time_3 patient_001
#>  4       NA FALSE   group_1 time_4 patient_001
#>  5       NA FALSE   group_1 time_1 patient_002
#>  6       NA FALSE   group_1 time_2 patient_002
#>  7       NA FALSE   group_1 time_3 patient_002
#>  8       NA FALSE   group_1 time_4 patient_002
#>  9       NA FALSE   group_1 time_1 patient_003
#> 10       NA FALSE   group_1 time_2 patient_003
#> # ℹ 790 more rows
…
