Cell-means-like time-averaged archetype — brm_archetype_average_cells • brms.mmrm
…
  brm_data_change() |>
  brm_simulate_continuous(names = c("biomarker1", "biomarker2")) |>
  brm_simulate_categorical(
    names = c("status1", "status2"),
    levels = c("present", "absent")
  )
dplyr::select(
  data,
  group,
  time,
  patient,
  starts_with("biomarker"),
  starts_with("status")
)
#> # A tibble: 600 × 7
#>    group   time   patient     biomarker1 biomarker2 status1 status2
#>    <chr>   <chr>  <chr>            <dbl>      <dbl> <chr>   <chr>  
#>  1 group_1 time_2 patient_001     -1.42      -0.287 absent  present
#>  2 group_1 time_3 patient_001     -1.42      -0.287 absent  present
#>  3 group_1 time_4 patient_001     -1.42      -0.287 absent  present
#>  4 group_1 time_2 patient_002     -1.67       1.84  absent  present
#>  5 group_1 time_3 patient_002     -1.67       1.84  absent  present
#>  6 group_1 time_4 patient_002     -1.67       1.84  absent  present
#>  7 group_1 time_2 patient_003      1.38      -0.157 absent  absent 
#>  8 group_1 time_3 patient_003      1.38      -0.157 absent  absent 
#>  9 group_1 time_4 patient_003      1.38      -0.157 absent  absent 
#> 10 group_1 time_2 patient_004     -0.920     -1.39  present present
#> # ℹ 590 more rows
archetype <- brm_archetype_average_cells(data)
archetype
#> # A tibble: 600 × 23
#>    x_group_1_time_2 x_group_1_time_3 x_group_1_time_4 x_group_2_time_2
#>  *            <int>            <int>            <int>            <int>
#>  1                3               -1               -1                0
#>  2                0                1                0                0
#>  3                0                0                1                0
#>  4                3               -1               -1                0
#>  5                0                1                0                0
#>  6                0                0                1                0
#>  7                3               -1               -1                0
#>  8                0                1                0                0
#>  9                0                0                1                0
#> 10                3               -1               -1                0
#> # ℹ 590 more rows
#> # ℹ 19 more variables: x_group_2_time_3 <int>, x_group_2_time_4 <int>,
#> #   nuisance_biomarker1 <dbl>, nuisance_biomarker2 <dbl>,
#> #   nuisance_status1_absent <dbl>, nuisance_status2_present <dbl>,
#> #   nuisance_baseline <dbl>, nuisance_baseline.timetime_2 <dbl>,
#> #   nuisance_baseline.timetime_3 <dbl>, patient <chr>, time <chr>, group <chr>,
#> #   missing <lgl>, change <dbl>, baseline <dbl>, biomarker1 <dbl>, …
…
