Marginal summaries of the data. — brm_marginal_data • brms.mmrm
…
    Examples

set.seed(0L)
data <- brm_data(
  data = brm_simulate_simple()$data,
  outcome = "response",
  role = "response",
  group = "group",
  time = "time",
  patient = "patient",
  reference_group = "group_1",
  reference_time = "time_1"
)
brm_marginal_data(data = data)
#> # A tibble: 56 × 4
#>    statistic group   time    value
#>    <chr>     <chr>   <chr>   <dbl>
#>  1 lower     group_1 time_1  1.39 
#>  2 lower     group_1 time_2  2.73 
#>  3 lower     group_1 time_3  2.70 
#>  4 lower     group_1 time_4  1.88 
#>  5 lower     group_2 time_1 -0.118
#>  6 lower     group_2 time_2  1.23 
#>  7 lower     group_2 time_3  1.12 
#>  8 lower     group_2 time_4  0.300
#>  9 mean      group_1 time_1  1.23 
#> 10 mean      group_1 time_2  2.57 
#> # ℹ 46 more rows
…
