…
## See also

Other data: [`brm_data_change()`](brm_data_change.md),
[`brm_data_chronologize()`](brm_data_chronologize.md)

## Examples

``` r
set.seed(0)
data <- brm_simulate_simple()$data
colnames(data) <- paste0("col_", colnames(data))
data
#> # A tibble: 800 × 4
#>    col_patient col_time col_response col_group
#>    <chr>       <chr>           <dbl> <chr>    
#>  1 patient_001 time_1          1.47  group_1  
#>  2 patient_001 time_2          3.10  group_1  
#>  3 patient_001 time_3          2.22  group_1  
#>  4 patient_001 time_4          0.215 group_1  
#>  5 patient_002 time_1          1.03  group_1  
#>  6 patient_002 time_2          2.28  group_1  
#>  7 patient_002 time_3          2.36  group_1  
#>  8 patient_002 time_4          2.33  group_1  
#>  9 patient_003 time_1          0.128 group_1  
#> 10 patient_003 time_2          1.89  group_1  
#> # ℹ 790 more rows
brm_data(
  data = data,
  outcome = "col_response",
  group = "col_group",
  time = "col_time",
  patient = "col_patient",
  reference_group = "group_1",
  reference_time = "time_1"
)
#> # A tibble: 800 × 4
#>    col_patient col_time col_response col_group
#>    <chr>       <chr>           <dbl> <chr>    
#>  1 patient_001 time_1          1.47  group_1  
#>  2 patient_001 time_2          3.10  group_1  
#>  3 patient_001 time_3          2.22  group_1  
#>  4 patient_001 time_4          0.215 group_1  
#>  5 patient_002 time_1          1.03  group_1  
#>  6 patient_002 time_2          2.28  group_1  
#>  7 patient_002 time_3          2.36  group_1  
#>  8 patient_002 time_4          2.33  group_1  
#>  9 patient_003 time_1          0.128 group_1  
#> 10 patient_003 time_2          1.89  group_1  
#> # ℹ 790 more rows
```
