Chronologize a dataset — brm_data_chronologize • brms.mmrm
…
    See also

    Other data:
brm_data(),
brm_data_change()

    Examples

data <- brm_simulate_outline(n_time = 12, n_patient = 4)
data$AVISIT <- gsub("_0", "_", data$time)
data$AVISITN <- as.integer(gsub("time_", "", data$time))
data[, c("AVISIT", "AVISITN")]
#> # A tibble: 96 × 2
#>    AVISIT  AVISITN
#>    <chr>     <int>
#>  1 time_1        1
#>  2 time_2        2
#>  3 time_3        3
#>  4 time_4        4
#>  5 time_5        5
#>  6 time_6        6
#>  7 time_7        7
#>  8 time_8        8
#>  9 time_9        9
#> 10 time_10      10
#> # ℹ 86 more rows
…
