Append simulated categorical covariates — brm_simulate_categorical • brms.mmrm
…
    Other simulation:
brm_simulate_continuous(),
brm_simulate_outline(),
brm_simulate_prior(),
brm_simulate_simple()

    Examples

data <- brm_simulate_outline()
brm_simulate_categorical(
  data = data,
  names = c("site", "region"),
  levels = c("area1", "area2")
)
#> # A tibble: 800 × 7
#>    patient     time   group   missing response site  region
#>    <chr>       <chr>  <chr>   <lgl>      <dbl> <chr> <chr> 
#>  1 patient_001 time_1 group_1 FALSE         NA area2 area2 
#>  2 patient_001 time_2 group_1 FALSE         NA area2 area2 
#>  3 patient_001 time_3 group_1 FALSE         NA area2 area2 
#>  4 patient_001 time_4 group_1 FALSE         NA area2 area2 
#>  5 patient_002 time_1 group_1 FALSE         NA area1 area2 
#>  6 patient_002 time_2 group_1 FALSE         NA area1 area2 
#>  7 patient_002 time_3 group_1 TRUE          NA area1 area2 
#>  8 patient_002 time_4 group_1 TRUE          NA area1 area2 
#>  9 patient_003 time_1 group_1 FALSE         NA area2 area2 
#> 10 patient_003 time_2 group_1 FALSE         NA area2 area2 
#> # ℹ 790 more rows
brm_simulate_categorical(
  data = data,
  names = c("site", "region"),
  levels = c("area1", "area2"),
  probabilities = c(0.1, 0.9)
)
#> # A tibble: 800 × 7
#>    patient     time   group   missing response site  region
#>    <chr>       <chr>  <chr>   <lgl>      <dbl> <chr> <chr> 
#>  1 patient_001 time_1 group_1 FALSE         NA area2 area2 
#>  2 patient_001 time_2 group_1 FALSE         NA area2 area2 
#>  3 patient_001 time_3 group_1 FALSE         NA area2 area2 
#>  4 patient_001 time_4 group_1 FALSE         NA area2 area2 
#>  5 patient_002 time_1 group_1 FALSE         NA area2 area2 
#>  6 patient_002 time_2 group_1 FALSE         NA area2 area2 
#>  7 patient_002 time_3 group_1 TRUE          NA area2 area2 
#>  8 patient_002 time_4 group_1 TRUE          NA area2 area2 
#>  9 patient_003 time_1 group_1 FALSE         NA area2 area2 
#> 10 patient_003 time_2 group_1 FALSE         NA area2 area2 
#> # ℹ 790 more rows
…
