Simple MMRM simulation. — brm_simulate_simple • brms.mmrm
…
    See also

    Other simulation: 
brm_simulate_categorical(),
brm_simulate_continuous(),
brm_simulate_outline(),
brm_simulate_prior()

    Examples

set.seed(0L)
simulation <- brm_simulate_simple()
simulation$data
#> # A tibble: 800 × 4
#>    response group   time   patient    
#>       <dbl> <chr>   <chr>  <chr>      
#>  1    1.47  group_1 time_1 patient_001
#>  2    3.10  group_1 time_2 patient_001
#>  3    2.22  group_1 time_3 patient_001
#>  4    0.215 group_1 time_4 patient_001
#>  5    1.03  group_1 time_1 patient_002
#>  6    2.28  group_1 time_2 patient_002
#>  7    2.36  group_1 time_3 patient_002
#>  8    2.33  group_1 time_4 patient_002
#>  9    0.128 group_1 time_1 patient_003
#> 10    1.89  group_1 time_2 patient_003
#> # ℹ 790 more rows
…
