…
  brm_data_change() |>
  brm_simulate_continuous(names = c("biomarker1", "biomarker2")) |>
  brm_simulate_categorical(
    names = c("status1", "status2"),
    levels = c("present", "absent")
  )
dplyr::select(
  data,
  group,
  time,
  patient,
  starts_with("biomarker"),
  starts_with("status")
)
#> # A tibble: 600 × 7
#>    group   time   patient     biomarker1 biomarker2 status1 status2
#>    <chr>   <chr>  <chr>            <dbl>      <dbl> <chr>   <chr>  
#>  1 group_1 time_2 patient_001     1.11       -0.222 present absent 
#>  2 group_1 time_3 patient_001     1.11       -0.222 present absent 
#>  3 group_1 time_4 patient_001     1.11       -0.222 present absent 
#>  4 group_1 time_2 patient_002    -0.0254      1.52  absent  absent 
#>  5 group_1 time_3 patient_002    -0.0254      1.52  absent  absent 
#>  6 group_1 time_4 patient_002    -0.0254      1.52  absent  absent 
#>  7 group_1 time_2 patient_003     0.0805     -0.139 absent  present
#>  8 group_1 time_3 patient_003     0.0805     -0.139 absent  present
#>  9 group_1 time_4 patient_003     0.0805     -0.139 absent  present
#> 10 group_1 time_2 patient_004     0.0910     -1.54  present absent 
#> # ℹ 590 more rows
…
