Informative prior archetypes • brms.mmrm
…
+   brm_data_change() |>
+   brm_simulate_continuous(names = c("biomarker1", "biomarker2")) |>
+   brm_simulate_categorical(
+     names = c("status1", "status2"),
+     levels = c("present", "absent")
+   )
> dplyr::select(
+   data,
+   group,
+   time,
+   patient,
+   starts_with("biomarker"),
+   starts_with("status")
+ )
#> # A tibble: 600 × 7
#>    group   time   patient     biomarker1 biomarker2 status1 status2
#>    <chr>   <chr>  <chr>            <dbl>      <dbl> <chr>   <chr>  
#>  1 group_1 time_2 patient_001     -1.42      -0.287 absent  present
#>  2 group_1 time_3 patient_001     -1.42      -0.287 absent  present
#>  3 group_1 time_4 patient_001     -1.42      -0.287 absent  present
#>  4 group_1 time_2 patient_002     -1.67       1.84  absent  present
#>  5 group_1 time_3 patient_002     -1.67       1.84  absent  present
#>  6 group_1 time_4 patient_002     -1.67       1.84  absent  present
#>  7 group_1 time_2 patient_003      1.38      -0.157 absent  absent 
#>  8 group_1 time_3 patient_003      1.38      -0.157 absent  absent 
#>  9 group_1 time_4 patient_003      1.38      -0.157 absent  absent 
#> 10 group_1 time_2 patient_004     -0.920     -1.39  present present
#> # ℹ 590 more rows
…
> archetype <- brm_archetype_successive_cells(data, baseline = FALSE)

The instance of the archetype is an ordinary tibble, but it adds new
columns.

> archetype
#> # A tibble: 600 × 23
#>    x_group_1_time_2 x_group_1_time_3 x_group_1_time_4 x_group_2_time_2 x_group_2_time_3
#>  *            <dbl>            <dbl>            <dbl>            <dbl>            <dbl>
#>  1                1                0                0                0                0
#>  2                1                1                0                0                0
#>  3                1                1                1                0                0
#>  4                1                0                0                0                0
#>  5                1                1                0                0                0
#>  6                1                1                1                0                0
#>  7                1                0                0                0                0
#>  8                1                1                0                0                0
#>  9                1                1                1                0                0
#> 10                1                0                0                0                0
#> # ℹ 590 more rows
#> # ℹ 18 more variables: x_group_2_time_4 <dbl>, nuisance_biomarker1 <dbl>, nuisance_biomarker2 <dbl>,
#> #   nuisance_status1_absent <dbl>, nuisance_status2_present <dbl>, nuisance_baseline.timetime_2 <dbl>,
#> #   nuisance_baseline.timetime_3 <dbl>, nuisance_baseline.timetime_4 <dbl>, patient <chr>, time <chr>,
#> #   change <dbl>, missing <lgl>, baseline <dbl>, group <chr>, biomarker1 <dbl>, biomarker2 <dbl>,
#> #   status1 <chr>, status2 <chr>
…
