Inference • brms.mmrm
…
data
#> # A tibble: 788 × 10
#>    USUBJID AVISIT ARMCD RACE        SEX   FEV1_BL WEIGHT VISITN VISITN2 FEV1_CHG
#>    <chr>   <fct>  <fct> <fct>       <fct>   <dbl>  <dbl>  <int>   <dbl>    <dbl>
#>  1 PT10    VIS1   PBO   Black or A… Fema…    57.7  0.795      1 -0.394    -12.7 
#>  2 PT10    VIS2   PBO   Black or A… Fema…    57.7  0.823      2 -0.0593   -12.7 
#>  3 PT10    VIS3   PBO   Black or A… Fema…    57.7  0.594      3  1.10     -12.7 
#>  4 PT10    VIS4   PBO   Black or A… Fema…    57.7  0.207      4  0.763    -12.7 
#>  5 PT100   VIS1   PBO   Black or A… Fema…    51.8  0.362      1  1.59     -17.2 
#>  6 PT100   VIS2   PBO   Black or A… Fema…    51.8  0.404      2  0.0450   -12.5 
#>  7 PT100   VIS3   PBO   Black or A… Fema…    51.8  0.504      3 -0.715    -11.2 
#>  8 PT100   VIS4   PBO   Black or A… Fema…    51.8  0.201      4  0.865    -11.2 
#>  9 PT102   VIS1   PBO   Asian       Fema…    52.2  0.577      1 -0.416    -16.6 
#> 10 PT102   VIS2   PBO   Asian       Fema…    52.2  0.227      2 -0.376     -8.48
#> # ℹ 778 more rows
…
