Meta-analytic predictive priors • brms.mmrm
…
library(mmrm)
data(fev_data, package = "mmrm")
data_current <- fev_data |>
  mutate(FEV1_CHG = FEV1 - FEV1_BL) |>
  brm_data(
    outcome = "FEV1_CHG",
    group = "ARMCD",
    time = "AVISIT",
    patient = "USUBJID",
    reference_group = "PBO"
  ) |>
  brm_data_chronologize(order = "VISITN") |>
  brm_archetype_effects(intercept = FALSE)
data_current
#> # A tibble: 800 × 19
#>    x_PBO_VIS1 x_PBO_VIS2 x_PBO_VIS3 x_PBO_VIS4
#>  *      <int>      <int>      <int>      <int>
#>  1          1          0          0          0
#>  2          0          1          0          0
#>  3          0          0          1          0
#>  4          0          0          0          1
#>  5          1          0          0          0
#>  6          0          1          0          0
#>  7          0          0          1          0
#>  8          0          0          0          1
#>  9          1          0          0          0
#> 10          0          1          0          0
#> # ℹ 790 more rows
#> # ℹ 15 more variables: x_TRT_VIS1 <int>,
#> #   x_TRT_VIS2 <int>, x_TRT_VIS3 <int>,
#> #   x_TRT_VIS4 <int>, USUBJID <fct>, AVISIT <ord>,
#> #   ARMCD <fct>, RACE <fct>, SEX <fct>,
#> #   FEV1_BL <dbl>, FEV1 <dbl>, WEIGHT <dbl>,
#> #   VISITN <int>, VISITN2 <dbl>, FEV1_CHG <dbl>
…
