Simulation • brms.mmrm
…
library(brms.mmrm)
set.seed(0)
sim <- brm_simulate_simple(
  n_group = 3,
  n_patient = 100,
  n_time = 4
)

The data element has a classed tibble you
can directly supply to brm_formula() and
brm_model().

sim$data
#> # A tibble: 1,200 × 4
#>    response group   time   patient    
#>       <dbl> <chr>   <chr>  <chr>      
#>  1    1.11  group_1 time_1 patient_1  
#>  2    2.15  group_1 time_2 patient_1  
#>  3    2.54  group_1 time_3 patient_1  
#>  4   -1.73  group_1 time_4 patient_1  
#>  5   -0.180 group_1 time_1 patient_10 
#>  6    0.626 group_1 time_2 patient_10 
#>  7   -0.221 group_1 time_3 patient_10 
#>  8   -1.53  group_1 time_4 patient_10 
#>  9    0.393 group_1 time_1 patient_100
#> 10    0.442 group_1 time_2 patient_100
#> # ℹ 1,190 more rows
…
Change from baseline

brm_data_change() can convert the outcome variable from
raw response to change from baseline. This applies to real datasets
passed through [brm_data()] as well as simulated ones from
e.g. [brm_simulate_simple()]. The dataset above uses raw response with a
baseline time point of "time_1"

sim$data
#> # A tibble: 1,200 × 4
#>    response group   time   patient    
#>       <dbl> <chr>   <chr>  <chr>      
#>  1    1.11  group_1 time_1 patient_1  
#>  2    2.15  group_1 time_2 patient_1  
#>  3    2.54  group_1 time_3 patient_1  
#>  4   -1.73  group_1 time_4 patient_1  
#>  5   -0.180 group_1 time_1 patient_10 
#>  6    0.626 group_1 time_2 patient_10 
#>  7   -0.221 group_1 time_3 patient_10 
#>  8   -1.53  group_1 time_4 patient_10 
#>  9    0.393 group_1 time_1 patient_100
#> 10    0.442 group_1 time_2 patient_100
#> # ℹ 1,190 more rows

brm_data_change() subtracts baseline, replaces the raw
response column with a new change from baseline column, adds a new
column for the original baseline raw response, and adjusts the internal
attributes of the classed object accordingly.

brm_data_change(
  data = sim$data,
  name_change = "new_change",
  name_baseline = "new_baseline"
)
#> # A tibble: 900 × 5
#>    new_change new_baseline group   time   patient    
#>         <dbl>        <dbl> <chr>   <chr>  <chr>      
#>  1     1.04          1.11  group_1 time_2 patient_1  
#>  2     1.43          1.11  group_1 time_3 patient_1  
#>  3    -2.84          1.11  group_1 time_4 patient_1  
#>  4     0.806        -0.180 group_1 time_2 patient_10 
#>  5    -0.0408       -0.180 group_1 time_3 patient_10 
#>  6    -1.35         -0.180 group_1 time_4 patient_10 
#>  7     0.0493        0.393 group_1 time_2 patient_100
#>  8    -0.981         0.393 group_1 time_3 patient_100
#>  9    -1.42          0.393 group_1 time_4 patient_100
#> 10     0.208         1.81  group_1 time_2 patient_11 
#> # ℹ 890 more rows
…
data <- brm_simulate_outline(
  n_group = 2,
  n_patient = 100,
  n_time = 4,
  rate_dropout = 0.3
)

data
#> # A tibble: 800 × 5
#>    response missing group   time   patient    
#>       <dbl> <lgl>   <chr>   <chr>  <chr>      
#>  1       NA FALSE   group_1 time_1 patient_1  
#>  2       NA TRUE    group_1 time_2 patient_1  
#>  3       NA TRUE    group_1 time_3 patient_1  
#>  4       NA TRUE    group_1 time_4 patient_1  
#>  5       NA FALSE   group_1 time_1 patient_10 
#>  6       NA FALSE   group_1 time_2 patient_10 
#>  7       NA FALSE   group_1 time_3 patient_10 
#>  8       NA TRUE    group_1 time_4 patient_10 
#>  9       NA FALSE   group_1 time_1 patient_100
#> 10       NA FALSE   group_1 time_2 patient_100
#> # ℹ 790 more rows
Optionally add random continuous covariates
brm_simulate_continuous() and random categorical covariates
using brm_simulate_categorical(). In each case, the
covariates are non-time-varying, which means each patient gets only one
unique value.

data <- data %>%
  brm_simulate_continuous(names = c("biomarker1", "biomarker2")) %>%
  brm_simulate_categorical(
    names = c("status1", "status2"),
    levels = c("present", "absent")
  )

data
#> # A tibble: 800 × 9
#>    response missing group   time   patient  biomarker1 biomarker2 status1 status2
#>       <dbl> <lgl>   <chr>   <chr>  <chr>         <dbl>      <dbl> <chr>   <chr>  
#>  1       NA FALSE   group_1 time_1 patient…      0.328     -0.655 present absent 
#>  2       NA TRUE    group_1 time_2 patient…      0.328     -0.655 present absent 
#>  3       NA TRUE    group_1 time_3 patient…      0.328     -0.655 present absent 
#>  4       NA TRUE    group_1 time_4 patient…      0.328     -0.655 present absent 
#>  5       NA FALSE   group_1 time_1 patient…      1.04      -0.779 absent  absent 
#>  6       NA FALSE   group_1 time_2 patient…      1.04      -0.779 absent  absent 
#>  7       NA FALSE   group_1 time_3 patient…      1.04      -0.779 absent  absent 
#>  8       NA TRUE    group_1 time_4 patient…      1.04      -0.779 absent  absent 
#>  9       NA FALSE   group_1 time_1 patient…      0.717     -0.954 present absent 
#> 10       NA FALSE   group_1 time_2 patient…      0.717     -0.954 present absent 
#> # ℹ 790 more rows
…
names(sim)
#> [1] "data"         "model"       
#> [3] "model_matrix" "outcome"     
#> [5] "parameters"

In addition, sim$data has a copy of the original
dataset, but with the outcome variable taken from the final draw from
the prior predictive distribution. In addition, the missingness pattern
is automatically applied so that sim$data$response is
NA_real_ whenever sim$data$missing equals
TRUE.

sim$data
#> # A tibble: 800 × 9
#>    response missing group   time  
#>       <dbl> <lgl>   <chr>   <chr> 
#>  1   -1.47  FALSE   group_1 time_1
#>  2   NA     TRUE    group_1 time_2
#>  3   NA     TRUE    group_1 time_3
#>  4   NA     TRUE    group_1 time_4
#>  5    2.53  FALSE   group_1 time_1
#>  6   -0.739 FALSE   group_1 time_2
#>  7    3.41  FALSE   group_1 time_3
#>  8   NA     TRUE    group_1 time_4
#>  9    6.93  FALSE   group_1 time_1
#> 10   -2.07  FALSE   group_1 time_2
#> # ℹ 790 more rows
#> # ℹ 5 more variables: patient <chr>,
#> #   biomarker1 <dbl>,
#> #   biomarker2 <dbl>, status1 <chr>,
#> #   status2 <chr>
…
