Usage • brms.mmrm
…
data <- brm_data(
  data = fev_data,
  outcome = "FEV1_CHG",
  group = "ARMCD",
  time = "AVISIT",
  patient = "USUBJID",
  baseline = "FEV1_BL",
  reference_group = "PBO",
  reference_time = "VIS1",
  covariates = c("RACE", "SEX")
)

data
#> # A tibble: 800 × 11
#>    USUBJID AVISIT ARMCD RACE  SEX   FEV1_BL  FEV1 WEIGHT VISITN VISITN2 FEV1_CHG
#>    <fct>   <fct>  <fct> <fct> <fct>   <dbl> <dbl>  <dbl>  <int>   <dbl>    <dbl>
#>  1 PT2     VIS1   PBO   Asian Male     45.0  NA    0.465      1  0.330     NA   
#>  2 PT2     VIS2   PBO   Asian Male     45.0  31.5  0.233      2 -0.820    -13.6 
#>  3 PT2     VIS3   PBO   Asian Male     45.0  36.9  0.360      3  0.487     -8.15
#>  4 PT2     VIS4   PBO   Asian Male     45.0  48.8  0.507      4  0.738      3.78
#>  5 PT3     VIS1   PBO   Blac… Fema…    43.5  NA    0.682      1  0.576     NA   
#>  6 PT3     VIS2   PBO   Blac… Fema…    43.5  36.0  0.892      2 -0.305     -7.51
#>  7 PT3     VIS3   PBO   Blac… Fema…    43.5  NA    0.128      3  1.51      NA   
#>  8 PT3     VIS4   PBO   Blac… Fema…    43.5  37.2  0.222      4  0.390     -6.34
#>  9 PT5     VIS1   PBO   Blac… Male     43.6  32.3  0.411      1 -0.0162   -11.3 
#> 10 PT5     VIS2   PBO   Blac… Male     43.6  NA    0.422      2  0.944     NA   
#> # ℹ 790 more rows
…
model$brms.mmrm_data
#> # A tibble: 800 × 11
#>    USUBJID AVISIT ARMCD RACE  SEX   FEV1_BL  FEV1 WEIGHT VISITN VISITN2 FEV1_CHG
#>    <fct>   <ord>  <fct> <fct> <fct>   <dbl> <dbl>  <dbl>  <int>   <dbl>    <dbl>
#>  1 PT2     VIS1   PBO   Asian Male     45.0  NA    0.465      1  0.330     NA   
#>  2 PT2     VIS2   PBO   Asian Male     45.0  31.5  0.233      2 -0.820    -13.6 
#>  3 PT2     VIS3   PBO   Asian Male     45.0  36.9  0.360      3  0.487     -8.15
#>  4 PT2     VIS4   PBO   Asian Male     45.0  48.8  0.507      4  0.738      3.78
#>  5 PT3     VIS1   PBO   Blac… Fema…    43.5  NA    0.682      1  0.576     NA   
#>  6 PT3     VIS2   PBO   Blac… Fema…    43.5  36.0  0.892      2 -0.305     -7.51
#>  7 PT3     VIS3   PBO   Blac… Fema…    43.5  NA    0.128      3  1.51      NA   
#>  8 PT3     VIS4   PBO   Blac… Fema…    43.5  37.2  0.222      4  0.390     -6.34
#>  9 PT5     VIS1   PBO   Blac… Male     43.6  32.3  0.411      1 -0.0162   -11.3 
#> 10 PT5     VIS2   PBO   Blac… Male     43.6  NA    0.422      2  0.944     NA   
#> # ℹ 790 more rows
…
The brm_marginal_summaries() function produces posterior
summaries of these marginals, and it includes the Monte Carlo standard
error (MCSE) of each estimate.

summaries <- brm_marginal_summaries(draws, level = 0.95)

summaries
#> # A tibble: 140 × 6
#>    marginal         statistic group time    value   mcse
#>    <chr>            <chr>     <chr> <chr>   <dbl>  <dbl>
#>  1 difference_group lower     TRT   VIS2  -2.37   0.0423
#>  2 difference_group lower     TRT   VIS3  -3.41   0.0832
#>  3 difference_group lower     TRT   VIS4  -3.48   0.155 
#>  4 difference_group mean      TRT   VIS2  -0.0893 0.0228
#>  5 difference_group mean      TRT   VIS3  -1.04   0.0235
#>  6 difference_group mean      TRT   VIS4   0.363  0.0317
#>  7 difference_group median    TRT   VIS2  -0.0987 0.0244
#>  8 difference_group median    TRT   VIS3  -1.04   0.0304
#>  9 difference_group median    TRT   VIS4   0.373  0.0475
#> 10 difference_group sd        TRT   VIS2   1.19   0.0164
#> # ℹ 130 more rows
…
Finally, brm_marignal_data() computes marginal means and
confidence intervals on the response variable in the data, along with
other summary statistics.

summaries_data <- brm_marginal_data(data = data, level = 0.95)

summaries_data
#> # A tibble: 56 × 4
#>    statistic group time   value
#>    <chr>     <fct> <ord>  <dbl>
#>  1 lower     PBO   VIS1  -5.86 
#>  2 lower     PBO   VIS2  -1.44 
#>  3 lower     PBO   VIS3   4.33 
#>  4 lower     PBO   VIS4  11.1  
#>  5 lower     TRT   VIS1   0.423
#>  6 lower     TRT   VIS2   3.96 
#>  7 lower     TRT   VIS3   7.67 
#>  8 lower     TRT   VIS4  16.0  
#>  9 mean      PBO   VIS1  -8.09 
#> 10 mean      PBO   VIS2  -3.38 
#> # ℹ 46 more rows
…
